﻿1. Тарас ШЕВЧЕНКО
2. 
3. Тополя
4. 
5. По діброві вітер виє,
6. Гуляє по полю,
7. Край дороги гне тополю
8. До самого долу.
9. Стан високий, лист широкий —
10. Нащо зеленіє?
11. Кругом поле, як те море
12. Широке, синіє.
13. Чумак іде, подивиться
14. Та й голову схилить;
15. Чабан вранці з сопілкою
16. Сяде на могилі,
17. Подивиться — серце ниє:
18. Кругом ні билини!
19. Одна, одна, як сирота
20. На чужині, гине!